Fundamentos de Análisis de Datos
…
Y con esto finalizaríamos el trabajo, hemos ido un poco justos de
tiempo por lo que se verá que el detalle y el mimo de los gráficos, las
salidas y comentarios no es el desado.

6 Versiones y paquetes
instalados de R

 sesion_info <- devtools::session_info()
dplyr::select(
  tibble::as_tibble(sesion_info$packages),
  c(package, loadedversion, source)
)

## # A tibble: 144 × 3
##    package       loadedversion source        
##    <chr>         <chr>         <chr>         
##  1 abind         1.4-5         CRAN (R 4.2.0)
##  2 assertthat    0.2.1         CRAN (R 4.2.1)
##  3 backports     1.4.1         CRAN (R 4.2.0)
##  4 bestNormalize 1.8.3         CRAN (R 4.2.2)
##  5 boot          1.3-28        CRAN (R 4.2.1)
##  6 broom         1.0.1         CRAN (R 4.2.1)
##  7 bslib         0.4.0         CRAN (R 4.2.1)
##  8 butcher       0.3.1         CRAN (R 4.2.2)
##  9 cachem        1.0.6         CRAN (R 4.2.1)
## 10 callr         3.7.2         CRAN (R 4.2.1)
## # … with 134 more rows
…
